EmplId5,Term5,Subject5
1118961,2195,ASC
1128360,2195,CCA
0371842,2195,CBR
1120201,2198,ASC
0870850,2198,CBR
1127577,2198,CST
1116130,2198,CCA
0298376,2198,CMP
0374966,2198,CYB
1130592,2198,DBA
1066452,2198,DBA
1130552,2198,DCL
1127279,2198,DFC
1113674,2198,MBA
1110831,2195,CMP
0292509,2195,CST
0614671,2195,CYB
1120272,2195,DFC
0957583,2195,LDT
1109839,2195,MBA
0395675,2198,ARTT
0752191,2198,MRKT
0132023,2198,NSCI
1011525,2198,PMAN
1120176,2198,LDT
0867924,2198,KORN
0595898,2198,JOUR
0342940,2198,HIST
1125746,2198,KORN
0605073,2198,HMLS
0092803,2198,OMDE
1127593,2198,ECON
1114374,2198,JAPN
0285928,2198,NURS
0013112,2195,EMAN
0014138,2195,ACCT
0020260,2195,ASCM
0027975,2195,BIFS
0032287,2195,BIOT
0033854,2195,BSBD
0036539,2195,BTMN
0041792,2198,ACCT
0042204,2198,ASCM
0043928,2198,BIFS
0048269,2198,BIOT
0049092,2198,BSBD
0049912,2198,CJMS
